// Jest Snapshot v1, https://goo.gl/fbAQLP

exports[`OrganizedPagination renders correctly 1`] = `
ShallowWrapper {
  Symbol(enzyme.__root__): [Circular],
  Symbol(enzyme.__unrendered__): <OrganizedPagination
    createCardFn={[Function]}
  />,
  Symbol(enzyme.__renderer__): Object {
    "batchedUpdates": [Function],
    "getNode": [Function],
    "render": [Function],
    "simulateError": [Function],
    "simulateEvent": [Function],
    "unmount": [Function],
  },
  Symbol(enzyme.__node__): Object {
    "instance": null,
    "key": undefined,
    "nodeType": "host",
    "props": Object {
      "children": Array [
        <a
          aria-controls="collapse"
          aria-expanded="false"
          className="btn btn-secondary"
          data-toggle="collapse"
          href="#collapse"
          role="button"
        >
          Advanced Options
        </a>,
        <div
          className="collapse"
          id="collapse"
        >
          <br />
          <Organizer
            onSelect={[Function]}
          />
        </div>,
        <hr />,
        <Pagination
          cardFn={
            <Card
              body={
                Array [
                  <p>
                    test
                  </p>,
                  <p>
                    test
                  </p>,
                ]
              }
              header={
                <p>
                  test
                </p>
              }
            />
          }
        />,
      ],
      "className": "container",
    },
    "ref": null,
    "rendered": Array [
      Object {
        "instance": null,
        "key": undefined,
        "nodeType": "host",
        "props": Object {
          "aria-controls": "collapse",
          "aria-expanded": "false",
          "children": "Advanced Options",
          "className": "btn btn-secondary",
          "data-toggle": "collapse",
          "href": "#collapse",
          "role": "button",
        },
        "ref": null,
        "rendered": "Advanced Options",
        "type": "a",
      },
      Object {
        "instance": null,
        "key": undefined,
        "nodeType": "host",
        "props": Object {
          "children": Array [
            <br />,
            <Organizer
              onSelect={[Function]}
            />,
          ],
          "className": "collapse",
          "id": "collapse",
        },
        "ref": null,
        "rendered": Array [
          Object {
            "instance": null,
            "key": undefined,
            "nodeType": "host",
            "props": Object {},
            "ref": null,
            "rendered": null,
            "type": "br",
          },
          Object {
            "instance": null,
            "key": undefined,
            "nodeType": "class",
            "props": Object {
              "onSelect": [Function],
              "organizerSettings": undefined,
            },
            "ref": null,
            "rendered": null,
            "type": [Function],
          },
        ],
        "type": "div",
      },
      Object {
        "instance": null,
        "key": undefined,
        "nodeType": "host",
        "props": Object {},
        "ref": null,
        "rendered": null,
        "type": "hr",
      },
      Object {
        "instance": null,
        "key": undefined,
        "nodeType": "class",
        "props": Object {
          "apiEndpoint": undefined,
          "cardFn": <Card
            body={
              Array [
                <p>
                  test
                </p>,
                <p>
                  test
                </p>,
              ]
            }
            header={
              <p>
                test
              </p>
            }
          />,
          "colCount": undefined,
          "rowCount": undefined,
        },
        "ref": null,
        "rendered": null,
        "type": [Function],
      },
    ],
    "type": "div",
  },
  Symbol(enzyme.__nodes__): Array [
    Object {
      "instance": null,
      "key": undefined,
      "nodeType": "host",
      "props": Object {
        "children": Array [
          <a
            aria-controls="collapse"
            aria-expanded="false"
            className="btn btn-secondary"
            data-toggle="collapse"
            href="#collapse"
            role="button"
          >
            Advanced Options
          </a>,
          <div
            className="collapse"
            id="collapse"
          >
            <br />
            <Organizer
              onSelect={[Function]}
            />
          </div>,
          <hr />,
          <Pagination
            cardFn={
              <Card
                body={
                  Array [
                    <p>
                      test
                    </p>,
                    <p>
                      test
                    </p>,
                  ]
                }
                header={
                  <p>
                    test
                  </p>
                }
              />
            }
          />,
        ],
        "className": "container",
      },
      "ref": null,
      "rendered": Array [
        Object {
          "instance": null,
          "key": undefined,
          "nodeType": "host",
          "props": Object {
            "aria-controls": "collapse",
            "aria-expanded": "false",
            "children": "Advanced Options",
            "className": "btn btn-secondary",
            "data-toggle": "collapse",
            "href": "#collapse",
            "role": "button",
          },
          "ref": null,
          "rendered": "Advanced Options",
          "type": "a",
        },
        Object {
          "instance": null,
          "key": undefined,
          "nodeType": "host",
          "props": Object {
            "children": Array [
              <br />,
              <Organizer
                onSelect={[Function]}
              />,
            ],
            "className": "collapse",
            "id": "collapse",
          },
          "ref": null,
          "rendered": Array [
            Object {
              "instance": null,
              "key": undefined,
              "nodeType": "host",
              "props": Object {},
              "ref": null,
              "rendered": null,
              "type": "br",
            },
            Object {
              "instance": null,
              "key": undefined,
              "nodeType": "class",
              "props": Object {
                "onSelect": [Function],
                "organizerSettings": undefined,
              },
              "ref": null,
              "rendered": null,
              "type": [Function],
            },
          ],
          "type": "div",
        },
        Object {
          "instance": null,
          "key": undefined,
          "nodeType": "host",
          "props": Object {},
          "ref": null,
          "rendered": null,
          "type": "hr",
        },
        Object {
          "instance": null,
          "key": undefined,
          "nodeType": "class",
          "props": Object {
            "apiEndpoint": undefined,
            "cardFn": <Card
              body={
                Array [
                  <p>
                    test
                  </p>,
                  <p>
                    test
                  </p>,
                ]
              }
              header={
                <p>
                  test
                </p>
              }
            />,
            "colCount": undefined,
            "rowCount": undefined,
          },
          "ref": null,
          "rendered": null,
          "type": [Function],
        },
      ],
      "type": "div",
    },
  ],
  Symbol(enzyme.__options__): Object {
    "adapter": ReactSixteenAdapter {
      "options": Object {
        "enableComponentDidUpdateOnSetState": true,
        "lifecycles": Object {
          "componentDidUpdate": Object {
            "onSetState": true,
          },
          "getDerivedStateFromProps": true,
          "getSnapshotBeforeUpdate": true,
          "setState": Object {
            "skipsComponentDidUpdateOnNullish": true,
          },
        },
      },
    },
  },
}
`;
