// Jest Snapshot v1, https://goo.gl/fbAQLP

exports[`Pagination renders correctly 1`] = `
ShallowWrapper {
  Symbol(enzyme.__root__): [Circular],
  Symbol(enzyme.__unrendered__): <Pagination
    apiEndpoint="test"
    cardFn={[Function]}
    colCount={4}
    rowCount={3}
  />,
  Symbol(enzyme.__renderer__): Object {
    "batchedUpdates": [Function],
    "getNode": [Function],
    "render": [Function],
    "simulateError": [Function],
    "simulateEvent": [Function],
    "unmount": [Function],
  },
  Symbol(enzyme.__node__): Object {
    "instance": null,
    "key": undefined,
    "nodeType": "host",
    "props": Object {
      "children": Array [
        Array [],
        <div
          style={
            Object {
              "alignItems": "flex-end",
              "display": "flex",
              "justifyContent": "center",
            }
          }
        >
          <button
            className="btn btn-secondary"
            onClick={[Function]}
            type="button"
          >
            <onlyUpdateForKeys(Loader)
              className=""
              color="#f8bbd0"
              loading={true}
              margin="2px"
              size={1}
              sizeUnit="vh"
            />
          </button>
        </div>,
        <br />,
      ],
      "className": "container",
    },
    "ref": null,
    "rendered": Array [
      Object {
        "instance": null,
        "key": undefined,
        "nodeType": "host",
        "props": Object {
          "children": <button
            className="btn btn-secondary"
            onClick={[Function]}
            type="button"
          >
            <onlyUpdateForKeys(Loader)
              className=""
              color="#f8bbd0"
              loading={true}
              margin="2px"
              size={1}
              sizeUnit="vh"
            />
          </button>,
          "style": Object {
            "alignItems": "flex-end",
            "display": "flex",
            "justifyContent": "center",
          },
        },
        "ref": null,
        "rendered": Object {
          "instance": null,
          "key": undefined,
          "nodeType": "host",
          "props": Object {
            "children": <onlyUpdateForKeys(Loader)
              className=""
              color="#f8bbd0"
              loading={true}
              margin="2px"
              size={1}
              sizeUnit="vh"
            />,
            "className": "btn btn-secondary",
            "onClick": [Function],
            "type": "button",
          },
          "ref": null,
          "rendered": Object {
            "instance": null,
            "key": undefined,
            "nodeType": "class",
            "props": Object {
              "className": "",
              "color": "#f8bbd0",
              "loading": true,
              "margin": "2px",
              "size": 1,
              "sizeUnit": "vh",
            },
            "ref": null,
            "rendered": null,
            "type": [Function],
          },
          "type": "button",
        },
        "type": "div",
      },
      Object {
        "instance": null,
        "key": undefined,
        "nodeType": "host",
        "props": Object {},
        "ref": null,
        "rendered": null,
        "type": "br",
      },
    ],
    "type": "div",
  },
  Symbol(enzyme.__nodes__): Array [
    Object {
      "instance": null,
      "key": undefined,
      "nodeType": "host",
      "props": Object {
        "children": Array [
          Array [],
          <div
            style={
              Object {
                "alignItems": "flex-end",
                "display": "flex",
                "justifyContent": "center",
              }
            }
          >
            <button
              className="btn btn-secondary"
              onClick={[Function]}
              type="button"
            >
              <onlyUpdateForKeys(Loader)
                className=""
                color="#f8bbd0"
                loading={true}
                margin="2px"
                size={1}
                sizeUnit="vh"
              />
            </button>
          </div>,
          <br />,
        ],
        "className": "container",
      },
      "ref": null,
      "rendered": Array [
        Object {
          "instance": null,
          "key": undefined,
          "nodeType": "host",
          "props": Object {
            "children": <button
              className="btn btn-secondary"
              onClick={[Function]}
              type="button"
            >
              <onlyUpdateForKeys(Loader)
                className=""
                color="#f8bbd0"
                loading={true}
                margin="2px"
                size={1}
                sizeUnit="vh"
              />
            </button>,
            "style": Object {
              "alignItems": "flex-end",
              "display": "flex",
              "justifyContent": "center",
            },
          },
          "ref": null,
          "rendered": Object {
            "instance": null,
            "key": undefined,
            "nodeType": "host",
            "props": Object {
              "children": <onlyUpdateForKeys(Loader)
                className=""
                color="#f8bbd0"
                loading={true}
                margin="2px"
                size={1}
                sizeUnit="vh"
              />,
              "className": "btn btn-secondary",
              "onClick": [Function],
              "type": "button",
            },
            "ref": null,
            "rendered": Object {
              "instance": null,
              "key": undefined,
              "nodeType": "class",
              "props": Object {
                "className": "",
                "color": "#f8bbd0",
                "loading": true,
                "margin": "2px",
                "size": 1,
                "sizeUnit": "vh",
              },
              "ref": null,
              "rendered": null,
              "type": [Function],
            },
            "type": "button",
          },
          "type": "div",
        },
        Object {
          "instance": null,
          "key": undefined,
          "nodeType": "host",
          "props": Object {},
          "ref": null,
          "rendered": null,
          "type": "br",
        },
      ],
      "type": "div",
    },
  ],
  Symbol(enzyme.__options__): Object {
    "adapter": ReactSixteenAdapter {
      "options": Object {
        "enableComponentDidUpdateOnSetState": true,
        "lifecycles": Object {
          "componentDidUpdate": Object {
            "onSetState": true,
          },
          "getDerivedStateFromProps": true,
          "getSnapshotBeforeUpdate": true,
          "setState": Object {
            "skipsComponentDidUpdateOnNullish": true,
          },
        },
      },
    },
  },
}
`;
