// Jest Snapshot v1, https://goo.gl/fbAQLP

exports[`Carousel Component renders correctly 1`] = `
ShallowWrapper {
  Symbol(enzyme.__root__): [Circular],
  Symbol(enzyme.__unrendered__): <Carousel
    name="TestCarousel"
  />,
  Symbol(enzyme.__renderer__): Object {
    "batchedUpdates": [Function],
    "getNode": [Function],
    "render": [Function],
    "simulateError": [Function],
    "simulateEvent": [Function],
    "unmount": [Function],
  },
  Symbol(enzyme.__node__): Object {
    "instance": null,
    "key": undefined,
    "nodeType": "host",
    "props": Object {
      "children": Array [
        <div
          className="carousel-inner"
          data-interval="1000"
          role="listbox"
        />,
        <a
          className="carousel-control-prev"
          data-slide="prev"
          href="#TestCarousel"
          role="button"
        >
          <span
            aria-hidden="true"
            className="carousel-control-prev-icon"
          />
          <span
            className="sr-only"
          >
            Previous
          </span>
        </a>,
        <a
          className="carousel-control-next"
          data-slide="next"
          href="#TestCarousel"
          role="button"
        >
          <span
            aria-hidden="true"
            className="carousel-control-next-icon"
          />
          <span
            className="sr-only"
          >
            Next
          </span>
        </a>,
      ],
      "className": "carousel slide",
      "data-ride": "carousel",
      "id": "TestCarousel",
    },
    "ref": null,
    "rendered": Array [
      Object {
        "instance": null,
        "key": undefined,
        "nodeType": "host",
        "props": Object {
          "children": undefined,
          "className": "carousel-inner",
          "data-interval": "1000",
          "role": "listbox",
        },
        "ref": null,
        "rendered": null,
        "type": "div",
      },
      Object {
        "instance": null,
        "key": undefined,
        "nodeType": "host",
        "props": Object {
          "children": Array [
            <span
              aria-hidden="true"
              className="carousel-control-prev-icon"
            />,
            <span
              className="sr-only"
            >
              Previous
            </span>,
          ],
          "className": "carousel-control-prev",
          "data-slide": "prev",
          "href": "#TestCarousel",
          "role": "button",
        },
        "ref": null,
        "rendered": Array [
          Object {
            "instance": null,
            "key": undefined,
            "nodeType": "host",
            "props": Object {
              "aria-hidden": "true",
              "className": "carousel-control-prev-icon",
            },
            "ref": null,
            "rendered": null,
            "type": "span",
          },
          Object {
            "instance": null,
            "key": undefined,
            "nodeType": "host",
            "props": Object {
              "children": "Previous",
              "className": "sr-only",
            },
            "ref": null,
            "rendered": "Previous",
            "type": "span",
          },
        ],
        "type": "a",
      },
      Object {
        "instance": null,
        "key": undefined,
        "nodeType": "host",
        "props": Object {
          "children": Array [
            <span
              aria-hidden="true"
              className="carousel-control-next-icon"
            />,
            <span
              className="sr-only"
            >
              Next
            </span>,
          ],
          "className": "carousel-control-next",
          "data-slide": "next",
          "href": "#TestCarousel",
          "role": "button",
        },
        "ref": null,
        "rendered": Array [
          Object {
            "instance": null,
            "key": undefined,
            "nodeType": "host",
            "props": Object {
              "aria-hidden": "true",
              "className": "carousel-control-next-icon",
            },
            "ref": null,
            "rendered": null,
            "type": "span",
          },
          Object {
            "instance": null,
            "key": undefined,
            "nodeType": "host",
            "props": Object {
              "children": "Next",
              "className": "sr-only",
            },
            "ref": null,
            "rendered": "Next",
            "type": "span",
          },
        ],
        "type": "a",
      },
    ],
    "type": "div",
  },
  Symbol(enzyme.__nodes__): Array [
    Object {
      "instance": null,
      "key": undefined,
      "nodeType": "host",
      "props": Object {
        "children": Array [
          <div
            className="carousel-inner"
            data-interval="1000"
            role="listbox"
          />,
          <a
            className="carousel-control-prev"
            data-slide="prev"
            href="#TestCarousel"
            role="button"
          >
            <span
              aria-hidden="true"
              className="carousel-control-prev-icon"
            />
            <span
              className="sr-only"
            >
              Previous
            </span>
          </a>,
          <a
            className="carousel-control-next"
            data-slide="next"
            href="#TestCarousel"
            role="button"
          >
            <span
              aria-hidden="true"
              className="carousel-control-next-icon"
            />
            <span
              className="sr-only"
            >
              Next
            </span>
          </a>,
        ],
        "className": "carousel slide",
        "data-ride": "carousel",
        "id": "TestCarousel",
      },
      "ref": null,
      "rendered": Array [
        Object {
          "instance": null,
          "key": undefined,
          "nodeType": "host",
          "props": Object {
            "children": undefined,
            "className": "carousel-inner",
            "data-interval": "1000",
            "role": "listbox",
          },
          "ref": null,
          "rendered": null,
          "type": "div",
        },
        Object {
          "instance": null,
          "key": undefined,
          "nodeType": "host",
          "props": Object {
            "children": Array [
              <span
                aria-hidden="true"
                className="carousel-control-prev-icon"
              />,
              <span
                className="sr-only"
              >
                Previous
              </span>,
            ],
            "className": "carousel-control-prev",
            "data-slide": "prev",
            "href": "#TestCarousel",
            "role": "button",
          },
          "ref": null,
          "rendered": Array [
            Object {
              "instance": null,
              "key": undefined,
              "nodeType": "host",
              "props": Object {
                "aria-hidden": "true",
                "className": "carousel-control-prev-icon",
              },
              "ref": null,
              "rendered": null,
              "type": "span",
            },
            Object {
              "instance": null,
              "key": undefined,
              "nodeType": "host",
              "props": Object {
                "children": "Previous",
                "className": "sr-only",
              },
              "ref": null,
              "rendered": "Previous",
              "type": "span",
            },
          ],
          "type": "a",
        },
        Object {
          "instance": null,
          "key": undefined,
          "nodeType": "host",
          "props": Object {
            "children": Array [
              <span
                aria-hidden="true"
                className="carousel-control-next-icon"
              />,
              <span
                className="sr-only"
              >
                Next
              </span>,
            ],
            "className": "carousel-control-next",
            "data-slide": "next",
            "href": "#TestCarousel",
            "role": "button",
          },
          "ref": null,
          "rendered": Array [
            Object {
              "instance": null,
              "key": undefined,
              "nodeType": "host",
              "props": Object {
                "aria-hidden": "true",
                "className": "carousel-control-next-icon",
              },
              "ref": null,
              "rendered": null,
              "type": "span",
            },
            Object {
              "instance": null,
              "key": undefined,
              "nodeType": "host",
              "props": Object {
                "children": "Next",
                "className": "sr-only",
              },
              "ref": null,
              "rendered": "Next",
              "type": "span",
            },
          ],
          "type": "a",
        },
      ],
      "type": "div",
    },
  ],
  Symbol(enzyme.__options__): Object {
    "adapter": ReactSixteenAdapter {
      "options": Object {
        "enableComponentDidUpdateOnSetState": true,
        "lifecycles": Object {
          "componentDidUpdate": Object {
            "onSetState": true,
          },
          "getDerivedStateFromProps": true,
          "getSnapshotBeforeUpdate": true,
          "setState": Object {
            "skipsComponentDidUpdateOnNullish": true,
          },
        },
      },
    },
  },
}
`;
