// Jest Snapshot v1, https://goo.gl/fbAQLP

exports[`GoogleMap Component render correctly 1`] = `
ShallowWrapper {
  Symbol(enzyme.__root__): [Circular],
  Symbol(enzyme.__unrendered__): <GoogleMap
    qry="Austin+TX"
  />,
  Symbol(enzyme.__renderer__): Object {
    "batchedUpdates": [Function],
    "getNode": [Function],
    "render": [Function],
    "simulateError": [Function],
    "simulateEvent": [Function],
    "unmount": [Function],
  },
  Symbol(enzyme.__node__): Object {
    "instance": null,
    "key": undefined,
    "nodeType": "host",
    "props": Object {
      "frameBorder": "0",
      "height": "300",
      "src": "https://maps.google.com/maps/embed/v1/place?q=Austin%2BTX&key=AIzaSyD-i6i5f06RQ8422a6lB2WVu0bnL_PJxz8",
      "style": Object {
        "border": 0,
        "width": "100%",
      },
      "title": "Map Location",
    },
    "ref": null,
    "rendered": null,
    "type": "iframe",
  },
  Symbol(enzyme.__nodes__): Array [
    Object {
      "instance": null,
      "key": undefined,
      "nodeType": "host",
      "props": Object {
        "frameBorder": "0",
        "height": "300",
        "src": "https://maps.google.com/maps/embed/v1/place?q=Austin%2BTX&key=AIzaSyD-i6i5f06RQ8422a6lB2WVu0bnL_PJxz8",
        "style": Object {
          "border": 0,
          "width": "100%",
        },
        "title": "Map Location",
      },
      "ref": null,
      "rendered": null,
      "type": "iframe",
    },
  ],
  Symbol(enzyme.__options__): Object {
    "adapter": ReactSixteenAdapter {
      "options": Object {
        "enableComponentDidUpdateOnSetState": true,
        "lifecycles": Object {
          "componentDidUpdate": Object {
            "onSetState": true,
          },
          "getDerivedStateFromProps": true,
          "getSnapshotBeforeUpdate": true,
          "setState": Object {
            "skipsComponentDidUpdateOnNullish": true,
          },
        },
      },
    },
  },
}
`;
